{
    "id": 4412339,
    "version": 6,
    "links": {
        "self": {
            "href": "https://api.zotero.org/groups/4412339",
            "type": "application/json"
        },
        "alternate": {
            "href": "https://www.zotero.org/groups/design_numrique",
            "type": "text/html"
        }
    },
    "meta": {
        "created": "2021-08-30T11:07:48Z",
        "lastModified": "2021-10-21T11:26:42Z",
        "numItems": 95
    },
    "data": {
        "id": 4412339,
        "version": 6,
        "name": "Design numérique",
        "owner": 866234,
        "type": "PublicClosed",
        "description": "",
        "url": "",
        "libraryEditing": "members",
        "libraryReading": "all",
        "fileEditing": "members",
        "members": [
            7552728,
            8571100,
            8571159,
            8606046,
            8638096
        ]
    }
}