<?xml version="1.0" encoding="UTF-8" standalone="no"?>
<svg
   xmlns:dc="http://purl.org/dc/elements/1.1/"
   xmlns:cc="http://creativecommons.org/ns#"
   xmlns:rdf="http://www.w3.org/1999/02/22-rdf-syntax-ns#"
   xmlns:svg="http://www.w3.org/2000/svg"
   xmlns="http://www.w3.org/2000/svg"
   xmlns:xlink="http://www.w3.org/1999/xlink"
   xmlns:sodipodi="http://sodipodi.sourceforge.net/DTD/sodipodi-0.dtd"
   xmlns:inkscape="http://www.inkscape.org/namespaces/inkscape"
   viewBox="0 0 100% auto"
   version="1.1"
   id="svg7"
   sodipodi:docname="path-1.svg"
   inkscape:version="0.92.3 (2405546, 2018-03-11)"
   width="202.20703"
   height="22.83893">
  <metadata
     id="metadata13">
    <rdf:RDF>
      <cc:Work
         rdf:about="">
        <dc:format>image/svg+xml</dc:format>
        <dc:type
           rdf:resource="http://purl.org/dc/dcmitype/StillImage" />
        <dc:title></dc:title>
      </cc:Work>
    </rdf:RDF>
  </metadata>
  <defs
     id="defs11" />
  <sodipodi:namedview
     pagecolor="#ffffff"
     bordercolor="#666666"
     borderopacity="1"
     objecttolerance="10"
     gridtolerance="10"
     guidetolerance="10"
     inkscape:pageopacity="0"
     inkscape:pageshadow="2"
     inkscape:window-width="1853"
     inkscape:window-height="1025"
     id="namedview9"
     showgrid="false"
     inkscape:zoom="2.2"
     inkscape:cx="125.87058"
     inkscape:cy="34.81933"
     inkscape:window-x="67"
     inkscape:window-y="27"
     inkscape:window-maximized="1"
     inkscape:current-layer="svg7"
     fit-margin-top="2.4"
     fit-margin-left="0"
     fit-margin-right="0"
     fit-margin-bottom="0" />
  <path
     style="fill:#000000;stroke-width:0.31304607"
     d="m 3.632326,21.554668 c 13.850974,-2.713501 19.167278,-4.663459 28.9579,-5.047154 13.275673,-0.520276 26.395491,3.869911 39.680816,3.749799 7.778558,-0.07033 15.411644,-2.497371 23.189638,-2.61522 11.23048,-0.170167 22.35094,2.875937 33.58212,2.759917 11.9099,-0.123021 23.63603,-3.932832 35.54349,-3.661738 11.35769,0.258579 14.30407,0.847124 33.70838,5.031969"
     id="curve"
     inkscape:connector-curvature="0"
     sodipodi:nodetypes="accaaa" />
  <text
     width="500"
     id="text5"
     style="fill:#000000"
     x="-82.164841"
     y="-88.299835"
     transform="translate(0,-22.999977)">
    <textPath
       xlink:href="#curve"
       id="textPath3"><?php echo $module->title; ?></textPath>
  </text>
</svg>
